{
  "file_generated_by": "FlutterFire CLI",
  "purpose": "FirebaseAppID & ProjectID for this Firebase app in this directory",
  "GOOGLE_APP_ID": "1:455854248618:ios:7c4c7004a56738cafb76d3",
  "FIREBASE_PROJECT_ID": "modeloapp-f2f80",
  "GCM_SENDER_ID": "455854248618"
}